{
  "projectType": "library",
  "root": "libs/forgot-password",
  "sourceRoot": "libs/forgot-password/src",
  "prefix": "dallas-casi",
  "targets": {
    "test": {
      "executor": "@nrwl/jest:jest",
      "outputs": ["coverage/libs/forgot-password"],
      "options": {
        "jestConfig": "libs/forgot-password/jest.config.js",
        "passWithNoTests": true
      }
    },
    "lint": {
      "executor": "@nrwl/linter:eslint",
      "options": {
        "lintFilePatterns": [
          "libs/forgot-password/src/**/*.ts",
          "libs/forgot-password/src/**/*.html"
        ]
      }
    }
  },
  "tags": []
}
