{
  "projectType": "library",
  "root": "libs/fuse",
  "sourceRoot": "libs/fuse/src",
  "prefix": "dallas-casi",
  "targets": {
    "test": {
      "executor": "@nrwl/jest:jest",
      "outputs": ["coverage/libs/fuse"],
      "options": {
        "jestConfig": "libs/fuse/jest.config.js",
        "passWithNoTests": true
      }
    },
    "lint": {
      "executor": "@nrwl/linter:eslint",
      "options": {
        "lintFilePatterns": ["libs/fuse/src/**/*.ts", "libs/fuse/src/**/*.html"]
      }
    }
  },
  "tags": []
}
